Titre,Réalisateur,Code postal,Coordonnée en X,Coordonnée en Y
355,SIMON KINBERG,75002,2.35051245,48.86548807
100 % COCO,TESSA SCHRAM,75016,2.28222,48.862548
120 BATTEMENTS PAR MINUTE,ROBIN CAMPILLO,75004,2.368288,48.853575
30 COINS,Alex de la Iglesia,75001,2.32928037,48.86821602
30 Jours Max,Tarek BOUDALI,75007,2.31428431,48.84857173
8 Rue de l'Humanité,Dany BOON,75011,2.37437122,48.85361481
A 2H DE PARIS,VIRGINIE VERRIER,75006,2.335294,48.842027
A Casa Tutti Bene,Gabriele Muccino,75007,2.30360058,48.85396827
A D N,Maïwenn,75012,2.37103531,48.84944136
À jamais fidèle,cheyenne carron,75020,2.40011725,48.85408465
A NOS AGES,ROBIN SYKES,75116,2.29169672,48.87249871
A PERFECT ENEMY,KIKE MAILLO,75007,2.3045003299999998,48.85502159
ABBEY ROAD,Gary Gray,75007,2.29175003,48.85783739
ADIEU MONSIEUR HAFFMANN,FRED CAVAYÉ,75018,2.33872114,48.88585596
Ala Vaikunthapurramlo,Trivikram Srinivas,75007,2.30045328,48.85479249
ALEXANDRE,François Ozon,75004,2.35549257,48.85565287
ALIBI.COM,PHILIPPE LACHEAU,75004,2.366394,48.854299
All Inclusive,Eloise Lang,75011,2.37290477,48.8685375
ALLAN KARDEC,WAGNER DE ASSIS,75005,2.3550538899999998,48.85005375
Amanda,Mikhael Hers,75012,2.40571945,48.84406451
AMANT DOUBLE,FRANCOIS OZON,75019,2.381239,48.882861
"AMI, AMI",VICTOR SAINT MACARY,75020,2.39265675,48.87154017
ANAK GARUDA,FOAZAN RIZAL,75001,2.33754677,48.85838862
Andy,David Weill,75013,2.38012818,48.83080552
ANNA M.,Luc Besson,75116,2.28693167,48.86341512
Année 2020,Laurent Rochette,75019,2.38101742,48.87647305
Army of the dead meanwhile in Germany,Matthias Schweighoffer,75015,2.3111236,48.84518561
ARTHUR RAMBO,Laurent Cantet,75020,2.40687854,48.86582154
AT ETERNITY'S GATE,JULIAN SCHNABEL,75018,2.33999108,48.88902172
AU BOUT DES DOIGTS,LUDOVIC BERNARD,75004,2.35416512,48.85582175
Au nom de la terre,Edouard Bergeon,75011,2.36479185,48.86635144
AU POSTE,Quentin Dupieux,75007,2.30853747,48.85654448
AU REVOIR LA HAUT,ALBERT DUPONTEL,75006,2.341002,48.851767
AURORE TABORT,BLANDINE LENOIR,75004,2.35441,48.854746
BAD BUZZ,STEPHANE KAZANDJIAN,75018,2.343165,48.882841
BAD POEMS,Gabor Reisz,75018,2.34507822,48.88746534
BANLIEUSARDS,Leila Sy et Kery James,75019,2.37481184,48.89719102
BARBAQUE,FABRICE EBOUE,75020,2.41030331,48.8556161
BARBARA,MATHIEU AMALRIC,75020,2.408001,48.867323
BEFIKRE,ADITYA CHOPRA,75005,2.34698,48.84093
Belle Fille,Méliane Marcaggi,75018,2.34570846,48.88884165
BELLEVILLE'S COP,Rachid Bouchareb,75020,2.38082915,48.86928694
Bêtes Blondes,Maxime Matray et Alexia Walther,75020,2.40307118,48.85954878
BIENVENUE AU GONDWANA,MAMANE,75007,2.314157,48.848666
BIG BANG,Cécilia Rouaud,75019,2.3824194800000003,48.87876467
BITTER FLOWERS,OLIVIER MEYS,75013,2.359029,48.827028
BLOCKBUSTER,JULY HYGRECK,75010,2.362852,48.881841
BOUTCHOU,ADRIEN PIQUET-GAUTHIER ET SIMON ISTOLAINEN,75020,2.3979107,48.8664589
BRAS OUVERTS,P. DE CHAUVERON,75020,2.40813,48.877527
Britt-Marie Was Here,Tuva Novotny,75020,2.38506517,48.87152132
BUDAPEST,Xavier Gens,75017,2.3216459,48.88575674
BURN OUT,YANN GOZLAN,93200,2.351453,48.928923
C'E TEMPO,Walter VELTRONI,75006,2.33896242,48.84894311
C'est la vie,Julien Rambaldi,75007,2.31224982,48.84770728
C'est Quoi ce Papy,Gabriel Julien Laférrière,75001,2.32572614,48.86725548
C'est quoi cette famille?! 2,Gabriel Julien Laferrière,75020,2.39266708,48.86935081
C'EST TOUT POUR MOI,L. COLBEAU JUSTIN,75009,2.330582,48.871796
CA C'EST LA FAMILLE,TEDDY LUSSI MODESTE,75006,2.34145,48.855084
CARBONE,OLIVIER MARCHAL,75007,2.297476,48.858373
CASANOVA,BENOIT JACQUOT,75001,2.33648913,48.86408229
Catharsis,HAFIDI ABDELOUAHED,75017,2.30500237,48.89070846
CCQAPE,Pascal Thomas,75009,2.34476977,48.87319331
CELLE QUE VOUS CROYEZ,SAFY NEBBOU,75015,2.31898803,48.84141679
CHACUN CHEZ SOI !,Michèle Laroque,75116,2.27574756,48.86695609
CHANSON DOUCE,LUCIE BORLETEAU,75011,2.3683791100000002,48.86540504
CHERCHEZ LA FEMME,SOU ABADI,75016,2.27133,48.853169
CHRIST(OFF),PIERRE DUDAN,75005,2.34602091,48.84235235
CIGARE AU MIEL,Madame KAMIR AÏNOUZ,75009,2.3434236999999998,48.88148627
CINQUIEME SET,Quentin Reynaud,75016,2.2709217600000002,48.85348889
"Cléo, Melvil et moi",Arnaud Viard,75006,2.33376164,48.85353868
COEXISTER,FABRICE EBOUE,75010,2.349195,48.873874
Cold war,Pawel PAWLIKOWSKI,75116,2.27612446,48.86725275
COLETTE,WASH WESTMORELAND,75004,2.35377471,48.85348112
COMÉDIE HUMAINE,XAVIER GIANNOLI,75006,2.33757707,48.84426368
Comme des rois,Xabi Molia,75020,2.3858794100000003,48.87400462
Comment je suis devenu Super Héros,Douglas Attal,75019,2.377927,48.89191791
CORPORATE,NICOLAS SILHOL,75017,2.304933,48.885318
COULEURS DE L'INCENDIE,Clovis Cornillac,75004,2.35922973,48.85169241
CURIOSA,,75116,2.29750439,48.86576069
D'après une histoire vraie,,75008,2.31123909,48.88051652
DALIDA,LISA AZUELOS,75018,2.336486,48.898989
DAMIEN S'ENGAGE,XAVIER DE CHOUDENS,75012,2.39486262,48.84569701
DANIEL,CYRIL MENNEGUN,75009,2.342312,48.879763
DANS LA BRUME,Daniel Roby,75005,2.35506005,48.84484267
De l'or pour les chiens,Anna Cazanave-Cambet,75020,2.38720825,48.87038329
DE PERNAS PRO AR 3,Julia Rezende,75001,2.34187932,48.85682578
Des avantages de voyager en train,Aritz Moreno,75007,2.29624266,48.85977813
DES JOURS SAUVAGES,David LANZMANN,75017,2.29788214,48.87854146
DES LUNETTES NOIRES,Claire Denis,75017,2.31868149,48.88946133
Des vacances à tout prix,Stevan Lee Mraovitch,75013,2.35388681,48.82213748
DEUX FILS,FELIX MOATI,75013,2.35248195,48.82742952
DEUX MOI,CEDRIC KLAPISCH,75004,2.35230612,48.85266597
DEVLET AILE VE BEN,ÖZGÜR YILDIZ,75010,2.355602,48.875943
DIANE A LES EPAULES,FABIEN GORGEART,75012,2.394875,48.840608
DIVORCE CLUB,Michaël Youn,75018,2.32848185,48.88552861
DJANGO MELODIES,ETIENNE COMAR,75018,2.337377,48.888524
DOCTEUR ?,Tristan SEGUELA,75008,2.30274582,48.86778091
Documentaire César 2018,,75008,2.30101028,48.87694985
Down In Paris,Antony Hickling,75009,2.33262034,48.88366027
E-book,Olivier ASSAYAS,75006,2.33328074,48.85546505
EIFFEL,MARTIN BOURBOULON,75007,2.31877317,48.86044975
Eiffel i'm in love 2,Rizal Mantovani,75015,2.28939041,48.85654265
ELI LI TRA NIJI,SADAM SIDDIG,75011,2.365658,48.866761
EMBRASSE MOI,CYPRIEN VIAL,75005,2.352176,48.843955
en attendant Bojangles,Régis Roinsard,75016,2.26832737,48.84860355
En attendant qui ? Mai,Marc RECUENCO,75017,2.31504611,48.88132227
EN CORPS,CEDRIC KLAPISCH,75001,2.34326304,48.85510453
ENCHANTEES,Saphia Azzeddine et François-Régis Jeanne,75007,2.32429153,48.86025238
Entre les Vagues,Anais Volpé,75020,2.39015879,48.87372771
Envole Moi,Christophe Barratier,75008,2.30749557,48.86945591
ESPADRILLES,LUDOVIC BERNARD,75016,2.284614,48.8647
ESPECES MENACEES,GILLES BOURDOS,75008,2.309988,48.865746
ETE 84,Francois Ozon,75012,2.40964512,48.82779856
Être En Mouvement,Éric Gravel,75010,2.3607052299999998,48.87670936
EVA,Benoît JACQUOT,75013,2.34871391,48.83604477
EYE ON JULIET,KIM NGUYEN,75006,2.339295,48.85575
FAHIM,Pierre-François MARTIN-LAVAL,75018,2.35987986,48.8871782
FAMOUS,Valérie Lemercier,75116,2.28693167,48.86341512
FEMME ENFANT,Amro Hamzawi,75002,2.34508894,48.86958642
Femme-Enfant,Amro Hamzawi,75010,2.35104056,48.8763142
FEU !!,Claire Denis,75010,2.36073798,48.87194898
FIN DE MATINEE,Hiroshi NISHATANI,75004,2.35467939,48.85411246
FLEUVE NOIR,ERICK ZONCA,75018,2.333761,48.883667
FLORA63,STEPHANE ROBELIN,75019,2.380028,48.872951
FORTE,Katia LEWKOWICZ,75019,2.37902873,48.8876142
FREED,JAMES FOLEY,75002,2.33227,48.870057
French Exit,Azazel Jacobs,75010,2.35860948,48.87430497
From Moscow to Royan 3.0,Elena Cosson,75016,2.26754109,48.85890709
GANGSTERDAM,ROMAIN LEVY,75005,2.343175,48.849319
Garçon chiffon,Nicolas Maury,75010,2.34952048,48.87941144
GARDE ALTERNEE,Alexandra LECLERE,75020,2.38927164,48.8747952
GAUGUIN,EDOUARD DELUC,75002,2.34652,48.865846
GC5,GUILLAUME CANET,75008,2.310065,48.878173
GEMINI,Christopher Mac-Quarrie,75001,2.33747001,48.86636442
GOLIATH,Frederic TELLIER,75011,2.39008155,48.84938662
Gott du kannst ein Arsch sein,Andre Erkau,75018,2.34327814,48.88726404
GUY,ALEX LUTZ,75018,2.33429595,48.88760945
H4-93,OLIVIER AYACHE VIDAL,75005,2.348593,48.847466
HARWOOD,NON COMMUNIQUE,75005,2.345759,48.853266
HAUTE SOCIETE,BYUN HYUK,75004,2.35416512,48.85582175
HEINRICH VOGELER,Marie Noëlle Sehr,75011,2.37294289,48.86908817
HOMMES AU BORD DE LA CRISE DE NERFS,AUDREY DANA,75007,2.32263022,48.85903778
HORS NORMES,Eric Toledano et Olivier Nakache,75016,2.2799082999999998,48.85315306
I LOVE YOU COIFFURE,Muriel ROBIN,75007,2.32258882,48.85935201
IBRAHIM,SAMIR GUESMI,75013,2.35028376,48.82116195
IL A DEJA TES YEUX,LUCIEN JEAN BAPTISTE,75016,2.281698,48.870509
IRIS/EX CHAOS,JALIL LESPERT,75015,2.282467,48.8495
IRREDUCTIBLE,JEROME COMMANDEUR,75007,2.32225035,48.85770168
Irréductible,Jérôme Commandeur,75013,2.36465811,48.8291273
It Must Be Heaven,Elia Suleiman,75001,2.33754677,48.85838862
J'ACCUSE,Roman Polanski,75009,2.34668065,48.87481826
J'IRAI MOURIR DANS LES CARPATES,ANTOINE DE MAXIMY,75011,2.3851671,48.85809612
J'irai où tu iras,Géraldine Nakache,75011,2.36907275,48.86545369
JALOUSE,Stéphane et David FOENKINOS,75010,2.36253764,48.87310137
JE SUIS KARL,Christian Schwochow,75020,2.4111162,48.865014790000004
"Je te veux, moi non plus","Inès Reg, Kevin Debonne",75001,2.34318146,48.85657817
JE VAIS MIEUX,Jean-Pierre améris,75020,2.3893773,48.87392349
Je voudrais que quelqu'un m'attende quelque part,Arnaud VIARD,75018,2.3361825,48.89656113
Jean-François,Sergi Portabella,75006,2.33256066,48.85413489
Jeanne,Bruno Dumont,75012,2.4331655899999998,48.82844105
JEUNE FEMME,LEONOR SERRAILLE,75017,2.297527,48.888211
Jewell Stone,Sandrine Dumas,75005,2.34507568,48.84516844
Joana,Flavia Castro,75018,2.33106295,48.88538876
Joueurs,Marie Monge,75010,2.3560512,48.87585783
JOUR J,REEM KHERICI,75012,2.374032,48.845539
JUSQU'A LA GARDE,XAVIER LEGRAND,75017,2.3087590000000002,48.880628
JUST DIVORCED,MAXIME GOVARE,75019,2.387721,48.876995
KANTOR,JAN HRYNIAK,75004,2.363695,48.853089
Kizie aur Manny,Mukesh Chhabra,75004,2.34861412,48.85617692
KNOCK,LORRAINE LEVY,75004,2.366481,48.851204
KO,FABRICE GOBERT,75013,2.37272,48.83575
Kompromat,Jérôme Salle,75020,2.3971586,48.853027
KOTO,YUKI SAITO,75020,2.390942,48.875382
L ANGLE MORT,PIERRE TRIVIDIC ET PATRICK MARIO BERNARD,75011,2.37716246,48.85219353
L ile Flottante,Daniel COHEN,75116,2.29322241,48.86408217
L'AMANT D'UN JOUR,PHILIPPE GARREL,75019,2.393126,48.877481
L'amour c'est mieux que la vie,Claude Lelouch,75018,2.34031211,48.88632706
L'AMOUR EST UNE FÊTE,Cédric ANGER,75009,2.33692226,48.88169133
L'AMOUR QU'IL NOUS FAUT,NATHALIE MARCHAK,75015,2.292742,48.855787
L'angle Mort,Pierre TRIVIDIC Patrick MARIO BERNARD,75019,2.39511961,48.8758262
L'ASCENSION,LUDOVIC BERNARD,75017,2.326873,48.883747
L'échange,Dan Mazer,75010,2.3658458700000002,48.87697306
L'échappée,Mathias Pardo,75006,2.33638456,48.84254987
L'EMBARRAS DU CHOIX,ERIC DELAVAINE,75020,2.402734,48.869189
L'ENFANT ET L'OISEAU,NICOLAS VANIER,75005,2.3593842,48.84200332
L'Enfant Roi,Antoine DE BARY,75005,2.3536381,48.84573786
L'Enkas,Sarah Marx,75018,2.33705207,48.89030559
L'Envers du Decors,Daniel Auteuil,75006,2.33138176,48.85403763
L'ÉTREINTE,Ludovic Bergery,75001,2.33667692,48.86571097
L'extraordinaire voyage du Fakir,Ken Scott,75018,2.34489393,48.88635692
L'HORIZON,EMILIE CARPENTIER,75008,2.2995928,48.87404017
L'INSPIRATRICE,GREGORY MAGNE,75116,2.2811568700000002,48.86158801
L'Origine du Monde,Laurent Lafitte,75011,2.38875066,48.85525822
L'UN DANS L'AUTRE,BRUNO CHICHE,75016,2.27518,48.851012
LA BEAUTE DU GESTE,SYLVIE OHAYON,75008,2.3022059,48.86440696
LA BELLE EPOQUE,NICOLAS BEDOS,75012,2.41461524,48.84663193
La belle et la belle,Sophie Fillières,75020,2.38195588,48.87238855
LA BOITE NOIRE,Yann Gozlan,75016,2.26880826,48.85147868
LA BOULE DU DRAGON,DOMINIQUE BAUMART et MOULOUD ACHOUR,75011,2.37693147,48.85338685
La Ch'Tite Famille,,75008,2.30184598,48.87429063
La croisade,Louis Garrel,75012,2.4114033,48.82956708
La Daronne,Jean Paul SALOME,75019,2.39323166,48.87796133
LA DOULEUR,EMMANUEL FINKIEL,75020,2.392911,48.864719
La Femme la plus assassinée du monde,Franck Ribiere,75018,2.34046409,48.88534198
LA FETE DES MERES,MARIE-CASTILLE MENTION-SCHAAR,75011,2.3769140699999998,48.85233442
La Fête des Mères,MARIE-CASTILLE MENTION-SCHAAR,75008,2.31693053,48.87063015
LA FETE EST FINIE,MARIE GAREL WEISS,75011,2.384164,48.850511
LA FILLE DE BREST,EMMANUELLE BERCOT,75007,2.306084,48.850078
La finale,Robin Sykes,75009,2.34495622,48.88201121
LA FINE FLEUR,PIERRE PINAUD,75016,2.25169453,48.86743211
La Fracture,Catherine Corsini,75009,2.34555854,48.87987362
LA GRANDE DERAILLE - ADDITIF N° 1,Benjamin EUVRARD,75016,2.27955572,48.85457156
LA LUTTE DES CLASSES,Michel Leclerc,75020,2.4111162,48.865014790000004
LA MELODIE,RACHID HAMI,75019,2.396256,48.87683
La Menace,Philippe Le Guay,75018,2.35825771,48.88617657
LA MONNAIE DE LEUR PIECE,ANNE LE NY,75003,2.359269,48.866791
LA NIAQUE,CHAD CHENOUGA,75007,2.314891,48.863325
LA NUIT A DEVORE LE MONDE,DOMINIQUE ROCHER,75006,2.337469,48.841911
La nuit venue,Frederic Farrucci,75017,2.28735985,48.88304848
"La nuit, je mens...",Stéphane Batut,75019,2.37812853,48.87778241
La petite bande,Pierre Salvadori,75012,2.45035533,48.84157823
LA PETITE SOLANGE,Axelle Ropert,75017,2.32620139,48.88416611
La pièce rapportée,Antonin Peretjatko,75001,2.33517721,48.8639615
LA PREMIERE SEANCE,Justine TRIET,75011,2.37069184,48.85381253
La première séance,Justine Triet,75012,2.40714861,48.84131129
LA REVANCHE DES CREVETTES PAILLETÉES,CEDRIC LE GALLO et MAXIME GOVARE,75007,2.30240008,48.86217176
LA SAGE FEMME,MARTIN PROVOST,75008,2.3036339999999997,48.871088
LA SAINTE FAMILLE,Louis-do Lencquesaing,75017,2.31232131,48.88271316
La Troisième Guerre,Giovanni Aloi,75019,2.3749599,48.88958638
La Verité,Hirokazu Kore-Eda,75014,2.33796822,48.8337965
LA VERITE SI JE MENS LES DEBUTS,Michel MUNZ  et Gérard BITTON,75002,2.35134099,48.867125
LA VIE DE CHATEAU,CEDRIC IDO,75010,2.352895,48.870988
LA VIE DEVANT SOI,Nessim CHIKHAOUI,75020,2.4053069799999998,48.85373446
LADIES,ANNE GAËLLE DAVAL,75010,2.369656,48.871181
LE BRIO,YVAN ATTAL,75007,2.330355,48.854646
Le Déchanché d'Elvis,"Lauriane Escaffre, Yvonnick Muller",75006,2.3342644200000002,48.85789846
Le Dernier Mercenaire,David CHARHON,75007,2.31348065,48.8631595
Le Dindon,Jalil Lespert,75008,2.31733098,48.88126465
LE DISCOURS,Laurent Tirard,75011,2.3798068900000002,48.86197586
Le Doudou,Philippe MECHELEN / Julien HERVE,75011,2.36801123,48.86088388
Le Fataliste,Louis Garrel,75014,2.32732229,48.83269918
Le Français,Andreï Smirnov,75005,2.3562644,48.84957632
LE GENDRE IDEAL,Hector CABELL REYES,75010,2.35378396,48.87160116
LE GRAND SAUT,E.TOLENADO/O.NAKACHE,75008,2.307901,48.876176
Le Jeu,Fred Cavayé,75012,2.44634388,48.84431641
Le Lion,Ludovic Colbeau-Justin,75016,2.26242687,48.83666907
LE MEILLEUR RESTE À VENIR,Matthieu DELAPORTE et Alexandre DE LA PATELLIÈRE,75002,2.34653209,48.86585089
LE MYSTERE HENRI PICK,Remi Bezançon,75015,2.30106913,48.84986798
LE PETIT SPIROU,NICOLAS BARY,75010,2.365561,48.881278
LE POULAIN,Mathieu Sapin,75007,2.30995863,48.86256834
LE PRINCE OUBLIE,Michel HAZANAVICIUS,75019,2.38766126,48.89958912
le Proverbe,Daniel Auteuil,75006,2.33138176,48.85403763
LE REDOUTABLE,MICHEL HAZANAVICIUS,75014,2.330821,48.836116
LE RIRE DE MA MERE,COLOMBE SAVIGNAC,75006,2.340826,48.847681
LE SEL DES LARMES,Philippe Garrel,75012,2.39150914,48.84675077
Le suicide d' Emma Peeters,Nicole PALO,75020,2.38605409,48.87168423
Le Suicide d'Emma Peeters,Nicole Palo,75018,2.3364613800000003,48.88460052
LE TRESOR DU PETIT NICOLAS,JULIEN RAPPENEAU,75008,2.31322361,48.87059728
LEILA,NAIDRA AYADI,75017,2.283835,48.878577
Les Affamés,Léa Frédeval,75004,2.35539005,48.85701442
les amis des amis,Pascal Bonitzer,75020,2.37999716,48.87255228
LES AMOURS D ANAIS,CHARLINE BOURGEOIS TACQUET,75014,2.32058627,48.83234867
Les Années 10 - L'infiltré,Thierry De Peretti,75003,2.36410499,48.86197202
LES BEAUX ESPRITS,VIANNEY LEBASQUE,75014,2.3404796,48.83029512
LES BONNES INTENTIONS,Gilles LEGRAND,75008,2.31123909,48.88051652
LES CARNIVORES,JEREMIE RENIER,75016,2.274253,48.848199
LES CHAMPS DE FLEURS,Jeanne Herry,75013,2.36420495,48.84272059
Les Charpentiers de Babel,Paul-Anthony Mille,75006,2.33445377,48.85054013
LES CHATOUILLES 2,Andréas Bescond et Eric Métayer,75017,2.28394649,48.87862617
Les Chatouilles 4,Andréa Bescond et Eric Métayer,75019,2.39778751,48.89300518
LES CHOSES HUMAINES,YVAN ATTAL,75016,2.27952937,48.85214876
LES DEUX ALFRED,Bruno Podalydès,75013,2.3583952999999998,48.82811151
Les Estivants,Valéria Bruni-Tedeschi,75007,2.3103863000000002,48.86362688
LES EX,MAURICE BARTHELEMY,75019,2.387537,48.879186
Les Fantasmes,David et Stéphane FOENKINOS,75014,2.31532343,48.82728869
LES FANTOMES D'ISMAEL,ARNAUD DESPLESCHIN,75002,2.341647,48.87102
LES FEMMES DU SQUARE,Julien Rambaldi,75009,2.33784993,48.88210668
LES FILLES DE REIMS,JULIEN HALLARD,75020,2.41113,48.862341
LES FOOTEUSES,Mohamed HAMIDI,75005,2.3419733,48.84311965
LES HEROIQUES,Maxime Roy,75010,2.36143507,48.88235204
les hommes de Namsan,Min-Ho Woo,75007,2.31633352,48.8577534
Les Jeunes Amants,Carine Tardieu,75020,2.38211459,48.87271373
Les Joueurs,Marie Monge,75019,2.3824194800000003,48.87876467
Les Meilleures,Marion Desseigne Ravel,75020,2.38211589,48.87100036
Les Mignonnes,Maïmouna Doucouré,75019,2.38535658,48.88289293
Les Olympiades,Jacques Audiard,75014,2.33993447,48.82418656
Les plus belles années,Claude Lelouch,75018,2.3433155,48.88617394
Les Promesses,Thomas KRUITHOF,75008,2.31229241,48.87857991
LES TETES DE L'EMPLOI,FRANCK MAGNIER,75019,2.398584,48.888656
Les Traducteurs,Régis ROINSARD,75013,2.34966006,48.82941979
Les tuche 3,Olivier Baroux,75016,2.26843236,48.85267333
les vétos,Julie Manoukian,75009,2.3458926,48.87160941
LES VIEUX FOURNEAUX,CHRISTOPHE DUTHURON,75017,2.2928535,48.88109861
LIBRES,GABRIEL LE BOMIN,75007,2.31686793,48.85780816
LISA REDLER,Nicole GARCIA,75019,2.37474399,48.89771252
LOLA ET SES FRERES,Jean-Paul ROUVE,75013,2.38260089,48.82623657
LOLA PATER,NADIR MOKNECHE,75005,2.360891,48.840372
LOUE MOI,VIRGINE SCSWARTZ,75009,2.335575,48.881494
LOVE ADDICT,Frank BELLOCQ,75009,2.33599532,48.87369358
LUCIA,JUAN PABLO MARTINEZ,75009,2.33702329,48.87938389
LUCKY,Mia Engberg,75011,2.37430576,48.86953725
LUMIERE AMOUREUSE,FRANCHIN DOM,75018,2.343412,48.887950000000004
LUZ,Flora LAU,75005,2.34699898,48.840936
Ma mère est folle,Diane KURYS,75016,2.2729777,48.8579727
MADAME,AMANDA STHERS,75016,2.276762,48.87016
Madame Claude,Sylvie VERHEYDE,75116,2.27161094,48.86404196
MADE IN CHINA,Julien ABRAHAM,75013,2.36446414,48.82596436
MAIS VOUS ETES FOUS,audrey Diwan,75116,2.28963866,48.86673002
MALAWA,James Huth,75116,2.27334782,48.86866115
MALI TWIST,ROBERT GUÉDIGUIAN,75006,2.33668638,48.85742574
MAMAN A TORT,MARC FITOUSSI,75013,2.36509,48.83413
Maoussi,Charlotte Schiøler,75020,2.40137723,48.85185547
MARIAGE BLANC,TAREK BOUDALI,75001,2.348699,48.861539
MARIE FRANCINE,VALERIE LEMERCIER,75013,2.35352,48.834973
MARVIN,ANNE FONTAINE,75010,2.355912,48.872684
MARYLINE,GUILLAUME GALLIENNE,75015,2.307935,48.847295
Mauvaises Herbes,Kheiron,75011,2.36479185,48.86635144
MAYA,Mia Hansen-Love,75020,2.39988317,48.86652176
MDR / MAISON DE RETRAITE,Thomas Gilou,75019,2.37899864,48.87483676
MEME PAS FROID,Élise OTZENBERGER,75016,2.26606534,48.85314347
MERVEILLES A MONTFERMEIL,Jeanne Balibar,75011,2.37589888,48.86236702
Mes provinciales,Jean Paul Civeyrac,75019,2.37931433,48.87832182
MES TRÈS CHERS ENFANTS,ALEXANDRA LECLÈRE,75006,2.32391052,48.84804231
MES TRESORS,PASCAL BOURDIAUX,75002,2.3396879999999998,48.868308
Mignonnes,Maïmouna Doucouré,75019,2.38208807,48.88213499
Miss,Ruben Alves,75009,2.33392053,48.88317737
MON BEBE,LISA AZUELOS,75012,2.39494495,48.83955987
Mon Chien Stupide,Yvan Attal,75006,2.3279246000000002,48.84850413
Mon Cousin,Jan Kounen,75017,2.29492548,48.87597289
MON INCONNUE,HUGO GÉLIN,75009,2.34454058,48.88170491
MON POUSSIN,FREDERIC FORESTIER,75004,2.356794,48.851793
MONSIEUR ET MADAME ADELMAN,NICOLAS BEDOS,75015,2.309895,48.846999
MRS MILLS,sophie marceau,75005,2.3428294,48.846912520000004
Musique de Chambre,Christophe Honoré,75005,2.33695948,48.84035619
NAMASTE ENGLAND,Vipul Shah,75010,2.3543729300000003,48.87966051
Ni Une Ni Deux,Anne Giafferi,75001,2.34187932,48.85682578
NICKY LARSON,PHILIPPE LACHEAU,75015,2.28419875,48.84972404
NOS ANNEES FOLLES,ANDRE TECHINE,75016,2.286885,48.875133
NOTRE DAME,Valérie DONZELLI,75004,2.34742343,48.85356537
NUIT BLANCHE ET GROS CALINS,Francesco  MANDELLI,75116,2.29071096,48.8678131
NUMERO UNE,TONIE MARSHALL,75006,2.335781,48.850021
On est fait pour s'entendre,Pascal Elbé,75016,2.2564945,48.84030214
On sourit pour la photo,François Uzan,75007,2.3114232599999998,48.84883162
ON THE FRENCH RIVIERA,ALAN SWYER,75001,2.342303,48.856822
ONELINE BILLIE,Lou Assous,75011,2.3790725200000002,48.86108519
ORANGES SANGUINES,Jean-Christophe Meurisse,75005,2.36384539,48.84409896
OSS 117 : Alerte rouge en Afrique noire,Nicolas BEDOS,75007,2.30674312,48.84883309
OTEZ MOI D'UN DOUTE,CARINE TARDIEU,75008,2.323143,48.871287
OUI MADEMOISELLE,YISHU YANG,75016,2.291363,48.863238
OVERDRIVE,ANTONIO NEGRET,75001,2.327837,48.869303
PAR UN DEMI CLAIR MATIN,Bruno Dumont,75008,2.3076061,48.86625686
Par-dessus l'épaule de Jonas,Jérôme Bonnell,75012,2.39785325,48.83542621
Paranoia Park 2021,Bruno Mercier,75019,2.38101742,48.87647305
PARENT D'ELEVE,NOEMIE SAGLIO,75012,2.3875304,48.84276693
"PARIS, LA BLANCHE",LIDIA TERKI,75007,2.2946809999999997,48.857581
Passion Simple,Danielle Arbid,75007,2.32747723,48.85373536
Patrick,Goncalo Waddington,75002,2.35222184,48.86978146
PAULA,CHRISTIAN SCHWOCHOW,75004,2.365669,48.84726
PETITE FLEUR,Santiago MITRE,75004,2.3532493,48.85351967
PETITE LEÇON D'AMOUR,EVE DEBOISE,75009,2.34271897,48.87831117
PLACE DES VICTOIRES,Yoann Guillouzouic,75018,2.34567683,48.89097249
Plaire...,Christophe Honoré,75006,2.33243307,48.85377085
PLAY,Anthony Marciano,75019,2.38101742,48.87647305
PLAYLIST,Nine ANTICO,75013,2.34966006,48.82941979
PLONGER,MELANIE LAURENT,75011,2.379033,48.851917
POLICE,ANNE FONTAINE,75012,2.39917795,48.83689818
PREMIERE ANNEE,Thomas LILTI,75007,2.32560135,48.85597944
Première année,Thomas LILTI,75007,2.32608697,48.85629319
Premieres Vacances,Patrick Cassir,75019,2.37872173,48.88740489
Premières Vacances,Patrick Cassir,75005,2.34886895,48.84701491
Présidents,Anne Fontaine,75116,2.29349896,48.8729234
PRODUCTION 46,,75004,2.34722613,48.8549928
Qu'est-ce qu'on a encore fait au bon dieu,Philippe De Chauveron,75002,2.33788974,48.87073551
QUAND ON CRIE AU LOUP,Marilou Berry,75016,2.26683189,48.85915131
QUAND TU DANSES,Ladislas Chollat,75008,2.30375968,48.8772123
QUE LE DIABLE NOUS EMPORTE,JEAN CLAUDE BRISSEAU,75010,2.350502,48.880061
RAID DINGUE,DANY BOON,75007,2.3090669999999998,48.847719
Remember me,Martin Rosete,75018,2.3424734799999998,48.88337997
REMISE DE PEINE,Pierre Salvadori,75020,2.40486612,48.86718505
RG02,Romain Gavras,75001,2.34561537,48.85529411
ROBUSTE,CONSTANCE MEYER,75116,2.29459509,48.86361957
ROCK ON 2,SHUJAAT SAUDAGAR,75015,2.285572,48.851806
RODIN,JACQUES DOILLON,75004,2.356798,48.855033
Rosa,Aurélie Saada,75008,2.32053484,48.8666995
ROSE,Niels Arden Oplev,75005,2.34507568,48.84516844
Ru Ying Sui Xin,Huo Jianqi,75116,2.28693167,48.86341512
Rumba la Vie,Franck Dubosc,75005,2.34221783,48.84641355
SAUVER OU PERIR,FREDERIC TELLIER,75003,2.3572722,48.85996277
Seize Printemps,Suzanne Lindon,75018,2.34212026,48.88356187
SELENE 66 QUESTIONS,JACQUELINE LENTZOU,75010,2.36022789,48.87319999
SEULS,DAVID MOREAU,75012,2.398097,48.847795
SI J'ETAIS UN HOMME,AUDREY DANA,75019,2.371493,48.885073
SIMON ET THÉODORE,MIKAEL BUCH,75012,2.38054355,48.84825193
SIMONE - LE VOYAGE DU SIÈCLE,OLIVIER DAHAN,75006,2.33925404,48.84888765
SIMONE BENLOULOU,MYRIAM AZIZA,75009,2.332572,48.871045
SMILEY,TRISTAN AUROUET THOMAS BIDEGAIN MARC FITOUSSI CYRIL GELBLAT VIANNEY LEBASQUE,75019,2.38261118,48.88247698
SOL,Jezabel MARQUES NAKACHE,75009,2.3274052100000002,48.87751385
SOLEIL NUIT SOLEIL,Marino Giardinelli,75018,2.33779827,48.89152324
SOOF 3,ANNE DE CLERCQ,75016,2.26169687,48.83457797
SOUS LE MEME TOIT,DOMINIQUE FARRUGIA,75019,2.393727,48.879854
SPARRING,JOUY SAMUEL,75009,2.341933,48.87554
Star 80 - La Suite,Frédéric Auburtin - Thomas Langmann,75009,2.3331101800000003,48.880654559999996
STARS 80 LA SUITE,THOMAS LANGMANN,75017,2.32368,48.887474
STELLA EST AMOUREUSE,Sylvie Verheyde,75013,2.35137819,48.82793218
SUN,Jonathan,75018,2.35669529,48.88608368
SUPER HEROS MALGRE LUI,PHILIPPE LACHEAU,75016,2.27950273,48.85420952
SUPREMES,AUDREY ESTROUGO,75018,2.35403716,48.88445329
Suprêmes,Audrey Estrougo,75020,2.40808053,48.86730392
SYNONYMES,Nadav Lapid,75005,2.3443123999999997,48.85317347
T'as Pécho?,Adeline PICAULT,75013,2.35266017,48.82130866
TANGUY 2,Etienne Chatiliez,75006,2.3333361999999997,48.85812463
Taxi 5,Franck Gastambide,75001,2.33165128,48.86314441
Tazzeka,Jean-philippe Gaud,75019,2.38087927,48.90033505
TELLE MERE TELLE FILLE,NOEMIE SAGLIO,75010,2.3573209999999998,48.869212
Tendre et saignant,Christopher Thompson,75003,2.36491118,48.86390989
TERRITOIRES,DAVID OELHOFFEN,75017,2.30047526,48.88689134
The 15:17 to Paris,Clint Eastwood,75018,2.33519866,48.88544771
THE ESCAPE,DOMINIC SAVAGE,75005,2.344829,48.850563
THE HUNTING,LEO ZHANG,75010,2.35483698,48.87365403
The White Crow,Ralph Fiennes,75011,2.36479185,48.86635144
THIRST STREET,NATHAN SILVER,75007,2.328898,48.85745
TOUCOULEUR (YAO),Philippe GODEAU,75006,2.32222116,48.84718553
TOUS LES DIEUX DU CIEL,Alexandre Claudin,75015,2.30422641,48.83802906
Tout ce qu'il me reste de la revolution,Judith Davis,75010,2.3558837,48.87649952
Tout ce qu'il me reste de la révolution,Judith Davis,75020,2.4139693700000002,48.85462819
Tout le monde debout,Franck Dubosc,75010,2.36558684,48.87159866
Tout Nous Sourit,Mélissa Drigeard,75016,2.25559391,48.84519243
TOUT S'EST BIEN PASSE,Francois OZON,75116,2.28160034,48.86249483
TOUT SIMPLEMENT NOIR,"John WAX, Jean-Pascal ZADI",75007,2.30910839,48.84915845
Toute Ressemblance,Michel Denisot,75005,2.3550538899999998,48.85005375
Tralala,Arnaud et Jean-Marie Larrieu,75014,2.32545897,48.84115124
Trois Fois Rien,Nadege Loiseau,75013,2.34399538,48.82284494
TROP D'AMOUR,Frankie WALLACH,75011,2.37134336,48.86616491
TUDO BOM TUDO BEM,WILLY BIONDANI,75010,2.362228,48.86845
UMAN,Xavier DURRINGER,75017,2.31138303,48.88321809
UN AMOUR IMPOSSIBLE,CATHERINE CORSINI,75005,2.35598881,48.84149137
Un Cadeau du Ciel,Alain Chabat,75004,2.35359686,48.85869705
UN CONTE INDIEN,HECTOR CABELLO REYES,75006,2.335642,48.855806
Un couteau dans le coeur,,75008,2.32394372,48.87482465
Un déjeuner d'amis,Edouard Baer,75006,2.33597462,48.84010206
Un Dragon en forme de nuage,Sergio Castellitto,75015,2.28771811,48.855679
Un hiver en été,Laetitia Masson,75001,2.33484405,48.86225195
Un homme pressé,,75015,2.3099660699999998,48.84698001
Un médecin de nuit,Elie Wajeman,75116,2.26985249,48.86428549
Un Monde Réel,Antoinette Boulat,75019,2.38465665,48.89382871
UN PEUPLE ET SON ROI,PIERRE SCHOELLER,75001,2.32515012,48.86242727
Un tour chez ma fille,Eric Lavaine,75009,2.34754404,48.87996555
UN TRIOMPHE,Emmanuel COURCOL,75006,2.33900999,48.84997162
UN VOYAGE EN HIVER,Claus DREXLER,75001,2.3413928,48.85715911
UNCORKED,PRENTICE PENNY,75010,2.35569016,48.87631268
UNDER THE EIFFEL TOWER,ARCHIE BORDERS,75014,2.32131585,48.83459708
Une fleur à la bouche,Eric Baudelaire,75006,2.3349915,48.8571859
Une histoire d'amour et de désir,Leila Bouzid,75005,2.3495821,48.84482922
UNE HISTOIRE DE L'ART,LUCAS BERNARD,75015,2.31858757,48.84297461
Une jeune fille qui va bien,Sandrine Kiberlain,75001,2.33666712,48.86413408
une jeunesse dorée,Eva Ionesco,75002,2.34846874,48.86503152
UNE SAISON EN FRANCE,MAHAMAT-SALEH HAROUN,75019,2.388306,48.875706
Une sirène à Paris,Mathias Malzieu,75116,2.29050227,48.86036539
UNE VIE VIOLENTE,THIERRY DE PERRETI,75008,2.325348,48.875559
Van Gogh in love,Jean Luc Ayach,75005,2.35283825,48.83891488
Versus,François Valla,75013,2.38025843,48.83033962
Vidocq,Jean François Richet,75001,2.3292215,48.86726685
VILLA CAPRICE,BERNARD STORA,75007,2.2955745,48.86036433
VIVE LA CRISE,JEAN FRANCOIS DAVY,94320,2.369363,48.764193
Voir le Jour,Stanley WOODWARD,75002,2.33729837,48.86826013
VOLTAIRE,Stephen Woolfenden,75015,2.29436215,48.83626066
Vous n'aurez pas ma haine,Kilian Riedhof,75020,2.37790846,48.87224362
Voyez comme on danse,Michel Blanc,75008,2.3083372300000002,48.86782591
WAR MACHINE,DAVID MICHOD,75001,2.336977,48.865278
YVES,Benoit FORGEARD,75012,2.45035533,48.84157823
ZONE FRANCHE,Monsieur Mohamed Hamidi,75009,2.33187457,48.8710898