[
    {
        "titre": "355",
        "realisateur": "SIMON KINBERG",
        "resume": "The film is an upcoming American spy film directed by Simon Kinberg and written by Theresa Rebeck. The film stars Jessica Chastain, Pen\u00e9lope Cruz, Fan Bingbing, Lupita Nyong'o, Diane Kruger, Sebastian Stan and \u00c9dgar Ram\u00edrez. It is scheduled to be released on January 15, 2021, by Universal Pictures.",
        "codePostal": 75002,
        "posLat": 2.35051245,
        "posLon": 48.86548807
    },
    {
        "titre": "Alibi.com",
        "realisateur": "PHILIPPE LACHEAU",
        "resume": "The film is a 2017 French comedy film. It is directed by Philippe Lacheau.",
        "codePostal": 75004,
        "posLat": 2.366394,
        "posLon": 48.854299
    },
    {
        "titre": "At Eternity's Gate",
        "realisateur": "JULIAN SCHNABEL",
        "resume": "The film is a 2018 biographical drama film about the final years of painter Vincent van Gogh's life. The film dramatizes the controversial theory put forward by Van Gogh biographers Steven Naifeh and Gregory White Smith, in which they speculate that Van Gogh's death was caused by mischief rather than it being a suicide. The film is directed and co-edited by Julian Schnabel, from a screenplay by Schnabel, Jean-Claude Carri\u00e8re and Louise Kugelberg. It stars Willem Dafoe as Van Gogh, Rupert Friend, Oscar Isaac, Mads Mikkelsen, Mathieu Amalric, Emmanuelle Seigner and Niels Arestrup. Principal photography took place in late 2017 over 38 days at various locations across France where Van Gogh resided during his final years. The film held its world premiere at the 75th Venice International Film Festival on September 3, 2018. The film was theatrically released in the United States on November 16, 2018, by CBS Films, before streaming on Netflix in France on February 15, 2019. It was released theatrically and through video-on-demand in the United Kingdom on March 29, 2019, by Curzon Artificial Eye. For his performance, Dafoe was nominated for the Academy Award for Best Actor and the Golden Globe Award for Best Actor \u2013 Motion Picture Drama, among others, and won the Volpi Cup for Best Actor at the 75th Venice International Film Festival.",
        "codePostal": 75018,
        "posLat": 2.33999108,
        "posLon": 48.88902172
    },
    {
        "titre": "Barbara",
        "realisateur": "MATHIEU AMALRIC",
        "resume": "The film is a 2017 French drama film directed by Mathieu Amalric. It stars Jeanne Balibar and Mathieu Amalric. It tells the story of an actress who prepares to portray the famous French singer Barbara. The film had its world premiere in the Un Certain Regard section at the 2017 Cannes Film Festival on 18 May 2017. It was released in France on 6 September 2017.",
        "codePostal": 75020,
        "posLat": 2.408001,
        "posLon": 48.867323
    },
    {
        "titre": "Befikre",
        "realisateur": "ADITYA CHOPRA",
        "resume": "The film is a 2016 Indian romantic comedy-drama film written, directed, and produced by Aditya Chopra under his banner of Yash Raj Films. It features Ranveer Singh and Vaani Kapoor in the lead roles. The film was shot over a period of 50 days in Paris and Mumbai. It released worldwide on 9 December 2016 to mixed reviews. The film's songs has been composed by Vishal-Shekhar and produced by Mikey McCleary with Vishal-Shekhar. McCleary also composed the background score of the movie. This is Chopra's only directorial venture without Shah Rukh Khan in the lead role.",
        "codePostal": 75005,
        "posLat": 2.34698,
        "posLon": 48.84093
    },
    {
        "titre": "Bitter Flowers",
        "realisateur": "OLIVIER MEYS",
        "resume": "The film is a 2017 internationally co-produced drama film directed by Olivier Meys in his directorial debut. It was written by Meys with Maarten Loix. The film had its world premiere at the 22nd Busan International Film Festival. It was later screened at the Chicago International Film Festival and the Palm Springs International Film Festival before its theatrical release. Bitter Flowers received four nominations at the 9th Magritte Awards, including Best Film and Best Director for Olivier Meys. It went on to win Best First Feature Film.",
        "codePostal": 75013,
        "posLat": 2.359029,
        "posLon": 48.827028
    },
    {
        "titre": "Budapest",
        "realisateur": "Xavier Gens",
        "resume": "The film is a 2018 French comedy directed by Xavier Gens. Two best friends with MBAs are bored in their jobs and start a travel business for bachelor parties.",
        "codePostal": 75017,
        "posLat": 2.3216459,
        "posLon": 48.88575674
    },
    {
        "titre": "Colette",
        "realisateur": "WASH WESTMORELAND",
        "resume": "The film is a 2018 biographical drama film directed by Wash Westmoreland, from a screenplay by Westmoreland, Rebecca Lenkiewicz and Richard Glatzer, based upon the life of the French novelist Colette. It stars Keira Knightley, Dominic West, Eleanor Tomlinson, and Denise Gough. It had its world premiere at the Sundance Film Festival on January 20, 2018. It was released in the United States on September 21, 2018, by Bleecker Street and 30West. The film premiered in London at the BFI London Film Festival and was released in the United Kingdom on January 11, 2019, by Lionsgate.",
        "codePostal": 75004,
        "posLat": 2.35377471,
        "posLon": 48.85348112
    },
    {
        "titre": "Dalida",
        "realisateur": "LISA AZUELOS",
        "resume": "The film is a 2017 French biographical drama film about the life of singer and actress Dalida. It is written, directed and co-produced by Lisa Azuelos, and stars Sveva Alviti as Dalida.",
        "codePostal": 75018,
        "posLat": 2.336486,
        "posLon": 48.898989
    },
    {
        "titre": "Eva",
        "realisateur": "Benoît JACQUOT",
        "resume": "The film is a 2018 French drama film directed by Benoît Jacquot, starring Isabelle Huppert and Gaspard Ulliel. It is based on the novel Eve by James Hadley Chase. It was selected to compete for the Golden Bear in the main competition section at the 68th Berlin International Film Festival.",
        "codePostal": 75013,
        "posLat": 2.34871391,
        "posLon": 48.83604477
    },
    {
        "titre": "Guy",
        "realisateur": "ALEX LUTZ",
        "resume": "The film is a 2018 French comedy film directed, written and starring Alex Lutz.",
        "codePostal": 75018,
        "posLat": 2.33429595,
        "posLon": 48.88760945
    },
    {
        "titre": "It Must Be Heaven",
        "realisateur": "Elia Suleiman",
        "resume": "The film is a 2019 internationally co-produced comedy film directed by Elia Suleiman. It was selected to compete for the Palme d'Or at the 2019 Cannes Film Festival. It was selected as the Palestinian entry for the Best International Feature Film at the 92nd Academy Awards, but it was not nominated.",
        "codePostal": 75001,
        "posLat": 2.33754677,
        "posLon": 48.85838862
    },
    {
        "titre": "Jeanne",
        "realisateur": "Bruno Dumont",
        "resume": "The film is a 2017 French musical film directed by Bruno Dumont. It was screened in the Directors' Fortnight section at the 2017 Cannes Film Festival. It was followed two years later by the non-musical sequel Joan of Arc which premiered at the 2019 Cannes Film Festival, written and directed by Dumont and with Lise Leplat Prudhomme reprising her role. The script is an adaptation of the play \"The Mystery of the Charity of Joan of Arc\", written in 1910 by the Catholic author Charles Péguy.",
        "codePostal": 75012,
        "posLat": 2.43316559,
        "posLon": 48.82844105
    },
    {
        "titre": "Le Brio",
        "realisateur": "YVAN ATTAL",
        "resume": "The film is a 2017 French comedy film directed by Yvan Attal.",
        "codePostal": 75007,
        "posLat": 2.330355,
        "posLon": 48.854646
    },
    {
        "titre": "Les tuche 3",
        "realisateur": "Olivier Baroux",
        "resume": "The film is a French comedy film co-written by Olivier Baroux, Nessim Chikhaoui, Julien Hervé, Philippe Mechelen and Jean-Paul Rouve and directed by Olivier Baroux. It is a sequel. It was released in January 2018 and was a commercial success.",
        "codePostal": 75016,
        "posLat": 2.26843236,
        "posLon": 48.85267333
    },
    {
        "titre": "Madame",
        "realisateur": "AMANDA STHERS",
        "resume": "The film is a 2017 French comedy-drama film directed by Amanda Sthers. The film is a satire of the class divide in today's Paris.",
        "codePostal": 75016,
        "posLat": 2.276762,
        "posLon": 48.87016
    },
    {
        "titre": "Marvin",
        "realisateur": "ANNE FONTAINE",
        "resume": "The film is a 2017 French drama film directed by Anne Fontaine. It screened in the Horizons section of the 74th Venice International Film Festival on 2 September 2017, and won the Queer Lion. The film premiered in English-language territories under the title Reinventing Marvin. The film stars Finnegan Oldfield as Marvin, a gay actor in Paris who is struggling to write and perform a one-man theatrical show about his childhood. It is noted for an appearance by Isabelle Huppert, playing herself.",
        "codePostal": 75010,
        "posLat": 2.355912,
        "posLon": 48.872684
    },
    {
        "titre": "Paula",
        "realisateur": "CHRISTIAN SCHWOCHOW",
        "resume": "The film is a 2016 German biographical film directed by Christian Schwochow. The film depicts pioneering female painter Paula Modersohn-Becker.",
        "codePostal": 75004,
        "posLat": 2.365669,
        "posLon": 48.84726
    },
    {
        "titre": "Quand on crie au loup",
        "realisateur": "Marilou Berry",
        "resume": "The film is a 2019 French comedy film directed by Marilou Berry.",
        "codePostal": 75016,
        "posLat": 2.26683189,
        "posLon": 48.85915131
    },
    {
        "titre": "Raid Dingue",
        "realisateur": "DANY BOON",
        "resume": "The film is a 2016 French comedy film written and directed by Dany Boon.",
        "codePostal": 75007,
        "posLat": 2.309067,
        "posLon": 48.847719
    },
    {
        "titre": "Rodin",
        "realisateur": "JACQUES DOILLON",
        "resume": "The film is a 2017 drama film directed by Jacques Doillon. It was selected to compete for the Palme d'Or in the main competition section at the 2017 Cannes Film Festival.",
        "codePostal": 75004,
        "posLat": 2.356798,
        "posLon": 48.855033
    },
    {
        "titre": "Taxi 5",
        "realisateur": "Franck Gastambide",
        "resume": "The film is a 2018 French action comedy film directed by Franck Gastambide. It is the fifth installment of the series, but features an entirely different cast.",
        "codePostal": 75001,
        "posLat": 2.33165128,
        "posLon": 48.86314441
    },
    {
        "titre": "The 15:17 to Paris",
        "realisateur": "Clint Eastwood",
        "resume": "The film is a 2018 American biographical drama film produced and directed by Clint Eastwood and written by Dorothy Blyskal, based on the 2016 autobiography The film: The True Story of a Terrorist, a Train, and Three American Heroes by Jeffrey E. Stern, Spencer Stone, Anthony Sadler, and Alek Skarlatos. The film stars Stone, Sadler, and Skarlatos as themselves and follows the trio through life leading up to and including their stopping of the 2015 Thalys train attack. Judy Greer and Jenna Fischer also star. Eastwood's intention to adapt the autobiography into a film was announced in April 2017, from a screenplay by Blyskal, a first-time screenwriter. Though professional actors such as Kyle Gallner and Jeremie Harris were considered, Eastwood decided by July to instead cast the real-life participants of the event, and filming began in the same month. The 15:17 to Paris was released in the United States on February 9, 2018, by Warner Bros. Pictures. It received mostly negative reviews from critics, who faulted the screenplay and unengaging story before the climax, while the lead actors' charisma and the central train sequence were generally praised. The film grossed $57 million worldwide against a production budget of $30 million.",
        "codePostal": 75018,
        "posLat": 2.33519866,
        "posLon": 48.88544771
    },
    {
        "titre": "The Escape",
        "realisateur": "DOMINIC SAVAGE",
        "resume": "The film is a 2017 British drama film directed by Dominic Savage. It was screened in the Special Presentations section at the 2017 Toronto International Film Festival. The story follows Tara, a stay at home mother, who is beginning to fall out of love with her husband, Mark, and their kids.",
        "codePostal": 75005,
        "posLat": 2.344829,
        "posLon": 48.850563
    },
    {
        "titre": "The White Crow",
        "realisateur": "Ralph Fiennes",
        "resume": "The film is a 2018 biographical drama film written by David Hare and directed by Ralph Fiennes. It chronicles the life and dance career of ballet dancer Rudolf Nureyev, played by Oleg Ivenko. It is inspired by the book Rudolf Nureyev: The Life by Julie Kavanagh. The title is a reference to his childhood moniker (with a somewhat similar meaning to \"black sheep\" in English), because he was unusual. Principal photography was completed in October 2017. It premiered at the 2018 Telluride Film Festival and the 2018 BFI London Film Festival. It also screened at the Tokyo International Film Festival, Cinemania (Bulgaria) and Febiofest (Czech Republic). Ralph Fiennes received the Special Achievement Award for Outstanding Artistic Contribution at the Tokyo International Film Festival, with the film receiving a Tokyo Grand Prix nomination. The film was released on 22 March 2019 in the UK (StudioCanal) and on 26 April 2019 in the US (Sony Pictures Classics).",
        "codePostal": 75011,
        "posLat": 2.36479185,
        "posLon": 48.86635144
    },
    {
        "titre": "Uncorked",
        "realisateur": "PRENTICE PENNY",
        "resume": "The film is a 2020 American drama film, written and directed by Prentice Penny. It stars Mamoudou Athie, Courtney B. Vance, Niecy Nash, Matt McGorry, Sasha Compere, Gil Ozeri, Kelly Jenrette, Bernard David Jones, Melisia Lomax and Meera Rohit Kumbhani. It was released on March 27, 2020, by Netflix.",
        "codePostal": 75010,
        "posLat": 2.35569016,
        "posLon": 48.87631268
    }
]